SET !_err=0x93_! 90
Error in line 495 of Myfrm12.Mycmd1.Click (record 11): Command contains unrecognized phrase/keyword.
SET !_err=0x93_! 80
Error in line 718 of Myfrm12.Mycmd1.Click (record 11): Command contains unrecognized phrase/keyword.
SET !_err=0x93_! 90
Error in line 3 of Myfrm12.Mycmd3.Click (record 15): Command contains unrecognized phrase/keyword.
SET !_err=0x93_! 80
Error in line 742 of Myfrm12.Mycmd3.Click (record 15): Command contains unrecognized phrase/keyword.
